// Jest Snapshot v1, https://goo.gl/fbAQLP

exports[`snapshot content area 1`] = `
<DocumentFragment>
  <div
    class="content-area"
    id="content-area"
  >
    Snapshot test
  </div>
</DocumentFragment>
`;
